{ "results": [
{
  "Address": "2050 California 4\nArnold, CA 95223",
  "BrewURL": "http://www.snowshoebrewing.com",
  "Logo": {
    "__type": "File",
    "name": "c816090a-6390-4e6e-a628-4f64f34980a8-snowshow_brew_logo.png",
    "url": "http://files.parse.com/31f19913-ad45-42f2-b1b3-d7e333561938/c816090a-6390-4e6e-a628-4f64f34980a8-snowshow_brew_logo.png"
  },
  "LogoSm": {
    "__type": "File",
    "name": "3939ddaa-8fc0-41bf-aedf-c4b2a7010d59-snowshow_brew_logo_sm.png",
    "url": "http://files.parse.com/31f19913-ad45-42f2-b1b3-d7e333561938/3939ddaa-8fc0-41bf-aedf-c4b2a7010d59-snowshow_brew_logo_sm.png"
  },
  "Name": "Snowshoe Brewing Company",
  "brewloc": {
    "__type": "GeoPoint",
    "latitude": 38.242781,
    "longitude": -120.362048
  },
  "createdAt": "2013-10-08T23:36:43.901Z",
  "updatedAt": "2013-10-25T17:33:35.598Z",
  "objectId": "0XJ5405Ite"
},
{
  "Address": "65 North San Pedro Street\nSan Jose, CA 95113",
  "BrewURL": "http://tiedhouse.com",
  "Logo": {
    "__type": "File",
    "name": "964928b0-e4dd-4f50-ba08-d5b56c91b6d4-Tied-House-Brewery-logo.png",
    "url": "http://files.parse.com/31f19913-ad45-42f2-b1b3-d7e333561938/964928b0-e4dd-4f50-ba08-d5b56c91b6d4-Tied-House-Brewery-logo.png"
  },
  "LogoSm": {
    "__type": "File",
    "name": "278a11fc-08c0-4442-b749-541ddb90377d-Tied-House-Brewery-logo_sm.png",
    "url": "http://files.parse.com/31f19913-ad45-42f2-b1b3-d7e333561938/278a11fc-08c0-4442-b749-541ddb90377d-Tied-House-Brewery-logo_sm.png"
  },
  "Name": "Tied House Caf & Brewery Company",
  "brewloc": {
    "__type": "GeoPoint",
    "latitude": 37.338841,
    "longitude": -121.893482
  },
  "createdAt": "2013-09-25T00:06:56.173Z",
  "updatedAt": "2013-10-25T17:14:26.657Z",
  "objectId": "ujePCZ3b2v"
},
{
  "Address": "3145 Geary Blvd, San Francisco, CA 94118",
  "BrewURL": "http://www.triplevoodoobrewing.com/TripleVoodoo/faces/Home.xhtml",
  "Logo": {
    "__type": "File",
    "name": "ec66d179-b96a-4a33-85a8-9aa2b7346bd3-triple-voodoo-logo.png",
    "url": "http://files.parse.com/31f19913-ad45-42f2-b1b3-d7e333561938/ec66d179-b96a-4a33-85a8-9aa2b7346bd3-triple-voodoo-logo.png"
  },
  "LogoSm": {
    "__type": "File",
    "name": "33c9d908-2099-4fdb-9f13-ace0ea034a19-triple-voodoo-logo_sm.png",
    "url": "http://files.parse.com/31f19913-ad45-42f2-b1b3-d7e333561938/33c9d908-2099-4fdb-9f13-ace0ea034a19-triple-voodoo-logo_sm.png"
  },
  "Name": "Triple Voodoo Brewing",
  "brewloc": {
    "__type": "GeoPoint",
    "latitude": 37.782197,
    "longitude": -122.452712
  },
  "createdAt": "2013-09-24T23:27:26.874Z",
  "updatedAt": "2013-10-25T17:20:01.916Z",
  "objectId": "12vTXrwRiy"
},
{
  "Address": "866 57th St, Sacramento, CA 95819",
  "BrewURL": "http://www.twelveroundsbrewing.com",
  "Logo": {
    "__type": "File",
    "name": "92661893-a737-48a6-bdc0-bd435a206f58-twelve_rounds_brew_logo.png",
    "url": "http://files.parse.com/31f19913-ad45-42f2-b1b3-d7e333561938/92661893-a737-48a6-bdc0-bd435a206f58-twelve_rounds_brew_logo.png"
  },
  "LogoSm": {
    "__type": "File",
    "name": "a27bb4bf-252e-477b-a488-f20f2e50c164-triple-voodoo-logo_sm.png",
    "url": "http://files.parse.com/31f19913-ad45-42f2-b1b3-d7e333561938/a27bb4bf-252e-477b-a488-f20f2e50c164-triple-voodoo-logo_sm.png"
  },
  "Name": "Twelve Rounds Brewing",
  "brewloc": {
    "__type": "GeoPoint",
    "latitude": 38.566472,
    "longitude": -121.433451
  },
  "createdAt": "2013-09-24T23:18:19.111Z",
  "updatedAt": "2013-10-25T17:20:34.323Z",
  "objectId": "9ClfNAdu5X"
},
{
  "Address": "289 Washington St, Auburn, CA 95603",
  "BrewURL": "http://auburnalehouse.com",
  "Logo": {
    "__type": "File",
    "name": "16b53302-3fc4-4fb7-8684-cdb5ad395bcc-auburn-alehouse.png",
    "url": "http://files.parse.com/31f19913-ad45-42f2-b1b3-d7e333561938/16b53302-3fc4-4fb7-8684-cdb5ad395bcc-auburn-alehouse.png"
  },
  "LogoSm": {
    "__type": "File",
    "name": "079be496-d1df-4de9-b0e9-f45f7d21967e-auburn-alehouse_sm.png",
    "url": "http://files.parse.com/31f19913-ad45-42f2-b1b3-d7e333561938/079be496-d1df-4de9-b0e9-f45f7d21967e-auburn-alehouse_sm.png"
  },
  "Name": "Auburn Alehouse",
  "brewloc": {
    "__type": "GeoPoint",
    "latitude": 38.895676,
    "longitude": -121.078155
  },
  "createdAt": "2013-09-24T19:53:57.116Z",
  "updatedAt": "2013-10-25T17:20:57.765Z",
  "objectId": "3nTh9HYrfo"
},
{
  "Address": "111 Industrial Rd\nSte 7, Belmont, CA 94002",
  "BrewURL": "http://www.devilscanyonbrewery.com",
  "Logo": {
    "__type": "File",
    "name": "b281acc0-0bed-45f4-91c1-366212baf1fc-Devils_Canyon_logo.png",
    "url": "http://files.parse.com/31f19913-ad45-42f2-b1b3-d7e333561938/b281acc0-0bed-45f4-91c1-366212baf1fc-Devils_Canyon_logo.png"
  },
  "LogoSm": {
    "__type": "File",
    "name": "d2b8ca4f-2f55-4cb7-a515-7be380c807fe-Devils_Canyon_logo-sm.png",
    "url": "http://files.parse.com/31f19913-ad45-42f2-b1b3-d7e333561938/d2b8ca4f-2f55-4cb7-a515-7be380c807fe-Devils_Canyon_logo-sm.png"
  },
  "Name": "Devil's Canyon Brewing Company",
  "brewloc": {
    "__type": "GeoPoint",
    "latitude": 37.659601,
    "longitude": -122.401407
  },
  "createdAt": "2013-09-22T04:25:45.762Z",
  "updatedAt": "2013-10-25T17:21:51.232Z",
  "objectId": "LPGtgOp92c"
},
{
  "Address": "150 Dubois Street\nSanta Cruz, CA 95060",
  "BrewURL": "http://www.santacruzaleworks.com",
  "Logo": {
    "__type": "File",
    "name": "b9482636-1e71-4c4f-96e5-1204cc520bc8-da7f8ca9-cb90-4c31-b9ab-fd30f63c141e-santa-cruz-aleworks-logo.png",
    "url": "http://files.parse.com/31f19913-ad45-42f2-b1b3-d7e333561938/b9482636-1e71-4c4f-96e5-1204cc520bc8-da7f8ca9-cb90-4c31-b9ab-fd30f63c141e-santa-cruz-aleworks-logo.png"
  },
  "LogoSm": {
    "__type": "File",
    "name": "5e82aaef-fdfd-4fad-a44f-7edeea74e9f1-santa-cruz-aleworks-logo-sm.png",
    "url": "http://files.parse.com/31f19913-ad45-42f2-b1b3-d7e333561938/5e82aaef-fdfd-4fad-a44f-7edeea74e9f1-santa-cruz-aleworks-logo-sm.png"
  },
  "Name": "Santa Cruz Ale Works",
  "brewloc": {
    "__type": "GeoPoint",
    "latitude": 36.987094,
    "longitude": -122.038901
  },
  "createdAt": "2013-10-09T00:07:42.708Z",
  "updatedAt": "2013-10-25T16:58:02.424Z",
  "objectId": "5h0MPFhT5k"
},
{
  "Address": "1300 Central Ave. McKinleyville, CA 95519",
  "BrewURL": "http://sixriversbrewery.com",
  "Logo": {
    "__type": "File",
    "name": "4da574a2-d647-40d7-b14b-1ec248b71e0a-six_riv_brew_logo.png",
    "url": "http://files.parse.com/31f19913-ad45-42f2-b1b3-d7e333561938/4da574a2-d647-40d7-b14b-1ec248b71e0a-six_riv_brew_logo.png"
  },
  "LogoSm": {
    "__type": "File",
    "name": "eddc039b-614e-4571-8438-fcd35be5aaad-six_riv_brew_logo-sm.png",
    "url": "http://files.parse.com/31f19913-ad45-42f2-b1b3-d7e333561938/eddc039b-614e-4571-8438-fcd35be5aaad-six_riv_brew_logo-sm.png"
  },
  "Name": "Six Rivers Brewery",
  "brewloc": {
    "__type": "GeoPoint",
    "latitude": 40.929207,
    "longitude": -124.102893
  },
  "createdAt": "2013-10-08T23:48:30.585Z",
  "updatedAt": "2013-10-25T17:33:45.164Z",
  "objectId": "S4onTIchw8"
},
{
  "Address": "1195 Evans Avenue\nSan Francisco, CA 94124",
  "BrewURL": "http://goodbeer.com/wordpress/",
  "Logo": {
    "__type": "File",
    "name": "0461c2ce-d9d1-490b-b047-f83dddb41bbd-Speakeasy_brew_logo.png",
    "url": "http://files.parse.com/31f19913-ad45-42f2-b1b3-d7e333561938/0461c2ce-d9d1-490b-b047-f83dddb41bbd-Speakeasy_brew_logo.png"
  },
  "LogoSm": {
    "__type": "File",
    "name": "eb5108a9-d865-4aa2-b67a-e05aa8d5976b-Speakeasy_brew_logo_sm.png",
    "url": "http://files.parse.com/31f19913-ad45-42f2-b1b3-d7e333561938/eb5108a9-d865-4aa2-b67a-e05aa8d5976b-Speakeasy_brew_logo_sm.png"
  },
  "Name": "Speakeasy Ales & Lagers",
  "brewloc": {
    "__type": "GeoPoint",
    "latitude": 37.738616,
    "longitude": -122.380228
  },
  "createdAt": "2013-10-08T23:14:54.170Z",
  "updatedAt": "2013-10-25T17:33:22.646Z",
  "objectId": "ugTeeHKxI6"
},
{
  "Address": "1326 9th Avenue\nSan Francisco, CA 94122",
  "BrewURL": "http://socialkitchenandbrewery.com",
  "Logo": {
    "__type": "File",
    "name": "7d3dae70-1224-4d05-a249-1a6fd083bc13-social_kitchen_brew_logo.png",
    "url": "http://files.parse.com/31f19913-ad45-42f2-b1b3-d7e333561938/7d3dae70-1224-4d05-a249-1a6fd083bc13-social_kitchen_brew_logo.png"
  },
  "LogoSm": {
    "__type": "File",
    "name": "8b63b1ec-8b7a-4d8d-aea4-2d0d9abb72a9-social_kitchen_brew_logo_sm.png",
    "url": "http://files.parse.com/31f19913-ad45-42f2-b1b3-d7e333561938/8b63b1ec-8b7a-4d8d-aea4-2d0d9abb72a9-social_kitchen_brew_logo_sm.png"
  },
  "Name": "Social Kitchen & Brewery",
  "brewloc": {
    "__type": "GeoPoint",
    "latitude": 37.763998,
    "longitude": -122.465973
  },
  "createdAt": "2013-10-04T00:06:48.556Z",
  "updatedAt": "2013-10-25T17:11:40.334Z",
  "objectId": "pVVWbPh7gD"
},
{
  "Address": "300 Cumberland Street, Pittsburg, CA 94565",
  "BrewURL": "http://www.ejphair.com/",
  "Logo": {
    "__type": "File",
    "name": "31aef526-9d43-4b8a-8f26-465d81e3bc99-0ba49c30-e5f1-4627-9cfc-e37910c20e2f-EJPhairLogo.png",
    "url": "http://files.parse.com/31f19913-ad45-42f2-b1b3-d7e333561938/31aef526-9d43-4b8a-8f26-465d81e3bc99-0ba49c30-e5f1-4627-9cfc-e37910c20e2f-EJPhairLogo.png"
  },
  "LogoSm": {
    "__type": "File",
    "name": "936c4dde-6713-4ea6-a496-ed5cde68bd83-EJPhairLogo-sm.png",
    "url": "http://files.parse.com/31f19913-ad45-42f2-b1b3-d7e333561938/936c4dde-6713-4ea6-a496-ed5cde68bd83-EJPhairLogo-sm.png"
  },
  "Name": "EJ Phair Brewing Company",
  "brewloc": {
    "__type": "GeoPoint",
    "latitude": 37.978439,
    "longitude": -122.033797
  },
  "createdAt": "2013-10-03T23:59:36.035Z",
  "updatedAt": "2013-10-25T21:51:09.997Z",
  "objectId": "BMlTmLdrRj"
},
{
  "Address": "600 K Bridge Street, Scotia, CA",
  "BrewURL": "http://www.eelriverbrewing.com/",
  "Logo": {
    "__type": "File",
    "name": "d176afd8-f23c-4174-92fb-755133079384-169d88af-1f99-4cc8-abe5-89c93a6138e2-EelRiverLogo.png",
    "url": "http://files.parse.com/31f19913-ad45-42f2-b1b3-d7e333561938/d176afd8-f23c-4174-92fb-755133079384-169d88af-1f99-4cc8-abe5-89c93a6138e2-EelRiverLogo.png"
  },
  "LogoSm": {
    "__type": "File",
    "name": "628d5acb-73d6-40c5-ba14-0bc94e9b3cc4-EelRiverLogo-sm.png",
    "url": "http://files.parse.com/31f19913-ad45-42f2-b1b3-d7e333561938/628d5acb-73d6-40c5-ba14-0bc94e9b3cc4-EelRiverLogo-sm.png"
  },
  "Name": "Eel River Brewing Company",
  "brewloc": {
    "__type": "GeoPoint",
    "latitude": 40.487163,
    "longitude": -124.103796
  },
  "createdAt": "2013-10-03T23:39:38.586Z",
  "updatedAt": "2013-10-25T21:50:13.071Z",
  "objectId": "Q7SBdPsplI"
},
{
  "Address": "421 Center Street\nYuba City, CA 95991",
  "BrewURL": "http://sutterbuttesbrewing.com",
  "Logo": {
    "__type": "File",
    "name": "484f494c-68a0-4dad-a631-7f3d4d30f5e1-stutter_buttes_logo.png",
    "url": "http://files.parse.com/31f19913-ad45-42f2-b1b3-d7e333561938/484f494c-68a0-4dad-a631-7f3d4d30f5e1-stutter_buttes_logo.png"
  },
  "LogoSm": {
    "__type": "File",
    "name": "154ca64c-f488-480b-976d-3920aaf5cc49-stutter_buttes_logo_sm.png",
    "url": "http://files.parse.com/31f19913-ad45-42f2-b1b3-d7e333561938/154ca64c-f488-480b-976d-3920aaf5cc49-stutter_buttes_logo_sm.png"
  },
  "Name": "Stutter Buttes Brewing",
  "brewloc": {
    "__type": "GeoPoint",
    "latitude": 39.137717,
    "longitude": -121.615005
  },
  "createdAt": "2013-10-03T23:33:40.883Z",
  "updatedAt": "2013-10-25T17:12:11.682Z",
  "objectId": "P4MPIhdsmQ"
},
{
  "Address": "3100 Spengler Way\nTurlock, CA 95380",
  "BrewURL": "http://www.dustbowlbrewing.com/",
  "Logo": {
    "__type": "File",
    "name": "b736af0b-271c-4c12-936d-e13742c6703e-DustBowlLogo.png",
    "url": "http://files.parse.com/31f19913-ad45-42f2-b1b3-d7e333561938/b736af0b-271c-4c12-936d-e13742c6703e-DustBowlLogo.png"
  },
  "LogoSm": {
    "__type": "File",
    "name": "47e89bf8-9c65-4ce0-828f-a46fb0b7e1da-DustBowlLogo-sm.png",
    "url": "http://files.parse.com/31f19913-ad45-42f2-b1b3-d7e333561938/47e89bf8-9c65-4ce0-828f-a46fb0b7e1da-DustBowlLogo-sm.png"
  },
  "Name": "Dust Bowl Brewing Company",
  "brewloc": {
    "__type": "GeoPoint",
    "latitude": 37.484615,
    "longitude": -120.883516
  },
  "createdAt": "2013-10-03T23:23:10.552Z",
  "updatedAt": "2013-10-25T21:48:50.554Z",
  "objectId": "aKpGnwG7pe"
},
{
  "Address": "475 North Lake Boulevard\nTahoe City, CA 96145",
  "BrewURL": "http://tahoebrewing.com/beers/",
  "Logo": {
    "__type": "File",
    "name": "2ab1e96c-8a03-407b-8e02-ee405ac269f6-tahoe_mountain_brew_logo.png",
    "url": "http://files.parse.com/31f19913-ad45-42f2-b1b3-d7e333561938/2ab1e96c-8a03-407b-8e02-ee405ac269f6-tahoe_mountain_brew_logo.png"
  },
  "LogoSm": {
    "__type": "File",
    "name": "699ad8b6-114d-429d-9431-819a40799f72-tahoe_mountain_brew_logo_sm.png",
    "url": "http://files.parse.com/31f19913-ad45-42f2-b1b3-d7e333561938/699ad8b6-114d-429d-9431-819a40799f72-tahoe_mountain_brew_logo_sm.png"
  },
  "Name": "Tahoe Mountain Brewing Company",
  "brewloc": {
    "__type": "GeoPoint",
    "latitude": 39.170879,
    "longitude": -120.141957
  },
  "createdAt": "2013-10-03T23:07:37.863Z",
  "updatedAt": "2013-10-25T17:33:08.782Z",
  "objectId": "j3TEjFMhTx"
},
{
  "Address": "675 Clarion Court San Luis Obispo, CA 93401",
  "BrewURL": "http://tapitbrewing.com",
  "Logo": {
    "__type": "File",
    "name": "69643f9c-c870-4dee-88fb-e579ce4ecafb-tap_it_logo.png",
    "url": "http://files.parse.com/31f19913-ad45-42f2-b1b3-d7e333561938/69643f9c-c870-4dee-88fb-e579ce4ecafb-tap_it_logo.png"
  },
  "LogoSm": {
    "__type": "File",
    "name": "15460844-98cf-4a36-87fa-34bbbfbbace4-tap_it_logo_sm.png",
    "url": "http://files.parse.com/31f19913-ad45-42f2-b1b3-d7e333561938/15460844-98cf-4a36-87fa-34bbbfbbace4-tap_it_logo_sm.png"
  },
  "Name": "Tap It Brewing Company",
  "brewloc": {
    "__type": "GeoPoint",
    "latitude": 35.244603,
    "longitude": -120.645912
  },
  "createdAt": "2013-09-25T20:27:21.749Z",
  "updatedAt": "2013-10-25T17:13:59.691Z",
  "objectId": "nHK9NapLoi"
},
{
  "Address": "610 3rd Street\nSanta Rosa, CA 95404",
  "BrewURL": "http://www.thirdstreetaleworks.com",
  "Logo": {
    "__type": "File",
    "name": "3a2804f2-32e4-4ba3-bc22-e796596d0803-third_street_logo.png",
    "url": "http://files.parse.com/31f19913-ad45-42f2-b1b3-d7e333561938/3a2804f2-32e4-4ba3-bc22-e796596d0803-third_street_logo.png"
  },
  "LogoSm": {
    "__type": "File",
    "name": "a8028a8c-e1e4-4cec-a703-4cb5efe67e53-third_street_logo-sm.png",
    "url": "http://files.parse.com/31f19913-ad45-42f2-b1b3-d7e333561938/a8028a8c-e1e4-4cec-a703-4cb5efe67e53-third_street_logo-sm.png"
  },
  "Name": "Third Street Aleworks",
  "brewloc": {
    "__type": "GeoPoint",
    "latitude": 38.440464,
    "longitude": -122.71235
  },
  "createdAt": "2013-09-25T20:15:56.337Z",
  "updatedAt": "2013-10-25T21:47:37.668Z",
  "objectId": "AuQfromrRQ"
},
{
  "Address": "661 Howard Street\nSan Francisco, CA 94105",
  "BrewURL": "http://thirstybear.com",
  "Logo": {
    "__type": "File",
    "name": "23fd73a4-e0e8-43ae-a634-9cb578d5e5be-thirsty-bear-logo.png",
    "url": "http://files.parse.com/31f19913-ad45-42f2-b1b3-d7e333561938/23fd73a4-e0e8-43ae-a634-9cb578d5e5be-thirsty-bear-logo.png"
  },
  "LogoSm": {
    "__type": "File",
    "name": "43f94bdc-96f2-4e74-8e2d-ae4273612d0d-thirsty-bear-logo-sm.png",
    "url": "http://files.parse.com/31f19913-ad45-42f2-b1b3-d7e333561938/43f94bdc-96f2-4e74-8e2d-ae4273612d0d-thirsty-bear-logo-sm.png"
  },
  "Name": "Thirsty Bear Brewery",
  "brewloc": {
    "__type": "GeoPoint",
    "latitude": 37.787335,
    "longitude": -122.399368
  },
  "createdAt": "2013-09-24T23:57:37.268Z",
  "updatedAt": "2013-10-25T17:19:32.454Z",
  "objectId": "Ck5nKQvfvX"
},
{
  "Address": "3747 W Pacific Ave #F, Sacramento, CA 95820",
  "BrewURL": "http://track7brewing.com",
  "Logo": {
    "__type": "File",
    "name": "53847789-4a44-433b-b538-da676de56ab1-3118b769-ea5c-49ff-9d02-49c1ee63093f-track7_logo.png",
    "url": "http://files.parse.com/31f19913-ad45-42f2-b1b3-d7e333561938/53847789-4a44-433b-b538-da676de56ab1-3118b769-ea5c-49ff-9d02-49c1ee63093f-track7_logo.png"
  },
  "LogoSm": {
    "__type": "File",
    "name": "07364d95-cac5-490c-a9b5-a6e049e28d02-TrackSevenLogosm.png",
    "url": "http://files.parse.com/31f19913-ad45-42f2-b1b3-d7e333561938/07364d95-cac5-490c-a9b5-a6e049e28d02-TrackSevenLogosm.png"
  },
  "Name": "Track 7 Brewing Company",
  "brewloc": {
    "__type": "GeoPoint",
    "latitude": 38.873973,
    "longitude": -121.48186
  },
  "createdAt": "2013-09-24T23:44:13.727Z",
  "updatedAt": "2013-10-31T19:06:02.719Z",
  "objectId": "0ijQFmePSG"
},
{
  "Address": "1920 Shattuck Ave, Berkeley, CA ‎94704",
  "BrewURL": "http://triplerock.com",
  "Logo": {
    "__type": "File",
    "name": "88630d5e-8528-4662-ba5f-fbdf005ea7c4-1af3605e-d26c-494a-a3df-8f7c26d21535-triple_rock_logo.png",
    "url": "http://files.parse.com/31f19913-ad45-42f2-b1b3-d7e333561938/88630d5e-8528-4662-ba5f-fbdf005ea7c4-1af3605e-d26c-494a-a3df-8f7c26d21535-triple_rock_logo.png"
  },
  "LogoSm": {
    "__type": "File",
    "name": "ad05a528-3021-467e-be98-f167d9ee1e4e-triple_rock_logo-sm.png",
    "url": "http://files.parse.com/31f19913-ad45-42f2-b1b3-d7e333561938/ad05a528-3021-467e-be98-f167d9ee1e4e-triple_rock_logo-sm.png"
  },
  "Name": "Triple Rock Brewery & Alehouse",
  "brewloc": {
    "__type": "GeoPoint",
    "latitude": 37.873973,
    "longitude": -122.268798
  },
  "createdAt": "2013-09-24T23:36:13.701Z",
  "updatedAt": "2013-10-31T19:07:15.484Z",
  "objectId": "MrLFZCvtoJ"
},
{
  "Address": "17700 Hwy 253 Boonville, CA 95415",
  "BrewURL": "https://avbc.com",
  "Logo": {
    "__type": "File",
    "name": "70bb70e6-f23c-4c64-941c-e2456379d3b2-anderson_valley_brewing_co.png",
    "url": "http://files.parse.com/31f19913-ad45-42f2-b1b3-d7e333561938/70bb70e6-f23c-4c64-941c-e2456379d3b2-anderson_valley_brewing_co.png"
  },
  "LogoSm": {
    "__type": "File",
    "name": "07cb6bbc-8e41-453f-bc80-fdb7096c3a06-anderson_valley_brewing_co_sm.png",
    "url": "http://files.parse.com/31f19913-ad45-42f2-b1b3-d7e333561938/07cb6bbc-8e41-453f-bc80-fdb7096c3a06-anderson_valley_brewing_co_sm.png"
  },
  "Name": "Anderson Valley Brewing Company",
  "brewloc": {
    "__type": "GeoPoint",
    "latitude": 39.0011,
    "longitude": -123.356
  },
  "createdAt": "2013-09-24T19:34:11.117Z",
  "updatedAt": "2013-10-25T17:21:23.859Z",
  "objectId": "o5U36Xrp61"
},
{
  "Address": "1705 Mariposa St, San Francisco, CA 94107",
  "BrewURL": "http://www.anchorbrewing.com",
  "Logo": {
    "__type": "File",
    "name": "b157012e-ef07-4b3b-b759-1fbdb9d414cc-anchor-brewing-logo.png",
    "url": "http://files.parse.com/31f19913-ad45-42f2-b1b3-d7e333561938/b157012e-ef07-4b3b-b759-1fbdb9d414cc-anchor-brewing-logo.png"
  },
  "LogoSm": {
    "__type": "File",
    "name": "083b9b29-d003-4601-a721-3e657a8356c6-anchor-brewing-logo-sm.png",
    "url": "http://files.parse.com/31f19913-ad45-42f2-b1b3-d7e333561938/083b9b29-d003-4601-a721-3e657a8356c6-anchor-brewing-logo-sm.png"
  },
  "Name": "Anchor Brewing Company",
  "brewloc": {
    "__type": "GeoPoint",
    "latitude": 37.7636,
    "longitude": -122.400542
  },
  "createdAt": "2013-09-22T02:13:15.695Z",
  "updatedAt": "2013-10-25T21:45:14.097Z",
  "objectId": "WfiBRZFMEK"
},
{
  "Address": "2402 Research Dr, Livermore, CA 94550",
  "BrewURL": "http://altamontbeerworks.com",
  "Logo": {
    "__type": "File",
    "name": "feb76551-5864-4a86-a956-2b7a77436bf1-altamont-brew-logo.png",
    "url": "http://files.parse.com/31f19913-ad45-42f2-b1b3-d7e333561938/feb76551-5864-4a86-a956-2b7a77436bf1-altamont-brew-logo.png"
  },
  "LogoSm": {
    "__type": "File",
    "name": "afd106b0-236b-4de3-9fd2-50eae1f754be-altamont-brew-logo-sm.png",
    "url": "http://files.parse.com/31f19913-ad45-42f2-b1b3-d7e333561938/afd106b0-236b-4de3-9fd2-50eae1f754be-altamont-brew-logo-sm.png"
  },
  "Name": "Altamont Beer Works",
  "brewloc": {
    "__type": "GeoPoint",
    "latitude": 37.676603,
    "longitude": -121.719825
  },
  "createdAt": "2013-09-22T01:41:09.875Z",
  "updatedAt": "2013-10-25T21:45:51.549Z",
  "objectId": "Ii1iTaMnEH"
},
{
  "Address": "975 Detroit Ave Unit E, Concord, CA 94518",
  "BrewURL": "http://aleindustries.com",
  "Logo": {
    "__type": "File",
    "name": "9e4926af-9a60-499b-82ca-e58437f436e8-ale-industries-logo.png",
    "url": "http://files.parse.com/31f19913-ad45-42f2-b1b3-d7e333561938/9e4926af-9a60-499b-82ca-e58437f436e8-ale-industries-logo.png"
  },
  "LogoSm": {
    "__type": "File",
    "name": "acddc703-cef4-46ec-a5bf-1d06a73fcbf0-ale-industries-logo_sm.png",
    "url": "http://files.parse.com/31f19913-ad45-42f2-b1b3-d7e333561938/acddc703-cef4-46ec-a5bf-1d06a73fcbf0-ale-industries-logo_sm.png"
  },
  "Name": "Ale Industries",
  "brewloc": {
    "__type": "GeoPoint",
    "latitude": 37.952015,
    "longitude": -122.027957
  },
  "createdAt": "2013-09-22T01:01:28.037Z",
  "updatedAt": "2013-10-25T17:22:14.488Z",
  "objectId": "9XLjtrBCXz"
},
{
  "Address": "563 2nd St, San Francisco, CA 94107",
  "BrewURL": "http://21st-amendment.com",
  "Logo": {
    "__type": "File",
    "name": "4173ae5a-22d4-4a8d-87df-1ad6ab05b8b8-21st-Amendment-logo.png",
    "url": "http://files.parse.com/31f19913-ad45-42f2-b1b3-d7e333561938/4173ae5a-22d4-4a8d-87df-1ad6ab05b8b8-21st-Amendment-logo.png"
  },
  "LogoSm": {
    "__type": "File",
    "name": "8954843c-b164-4456-b6fe-639e19589b59-21st-Amendment-logo-sm.png",
    "url": "http://files.parse.com/31f19913-ad45-42f2-b1b3-d7e333561938/8954843c-b164-4456-b6fe-639e19589b59-21st-Amendment-logo-sm.png"
  },
  "Name": "21st Amendment",
  "brewloc": {
    "__type": "GeoPoint",
    "latitude": 37.782824,
    "longitude": -122.392395
  },
  "createdAt": "2013-09-22T00:23:40.958Z",
  "updatedAt": "2013-10-25T17:22:35.394Z",
  "objectId": "xZF9PepAD1"
},
{
  "Address": "1304 Scott Street, Petaluma, CA 94954",
  "BrewURL": "http://www.101northbeer.com",
  "Logo": {
    "__type": "File",
    "name": "4892319d-85e4-4e51-b397-25fdaf7a8243-101-north-brew-logo.png",
    "url": "http://files.parse.com/31f19913-ad45-42f2-b1b3-d7e333561938/4892319d-85e4-4e51-b397-25fdaf7a8243-101-north-brew-logo.png"
  },
  "LogoSm": {
    "__type": "File",
    "name": "92c41bce-de13-43d4-8f1e-9b18f9ceb717-101-north-brew-logo-sm.png",
    "url": "http://files.parse.com/31f19913-ad45-42f2-b1b3-d7e333561938/92c41bce-de13-43d4-8f1e-9b18f9ceb717-101-north-brew-logo-sm.png"
  },
  "Name": "101 North Brewery",
  "brewloc": {
    "__type": "GeoPoint",
    "latitude": 38.270566,
    "longitude": -122.665164
  },
  "createdAt": "2013-09-22T00:07:47.328Z",
  "updatedAt": "2013-10-25T21:41:31.194Z",
  "objectId": "teN5tMHeyc"
},
{
  "Address": "6300 Folsom Blvd, Sacramento, CA 95819",
  "BrewURL": "http://www.hoppy.com",
  "Logo": {
    "__type": "File",
    "name": "210f5080-59a2-4493-9887-3bbf433ebc14-Hoppy-logo.png",
    "url": "http://files.parse.com/31f19913-ad45-42f2-b1b3-d7e333561938/210f5080-59a2-4493-9887-3bbf433ebc14-Hoppy-logo.png"
  },
  "LogoSm": {
    "__type": "File",
    "name": "b3502021-fca5-45b2-94f1-376e38929f24-Hoppy-logo-sm.png",
    "url": "http://files.parse.com/31f19913-ad45-42f2-b1b3-d7e333561938/b3502021-fca5-45b2-94f1-376e38929f24-Hoppy-logo-sm.png"
  },
  "Name": "Hoppy",
  "brewloc": {
    "__type": "GeoPoint",
    "latitude": 38.555242,
    "longitude": -121.429905
  },
  "createdAt": "2013-09-16T21:54:00.151Z",
  "updatedAt": "2013-10-25T21:40:04.211Z",
  "objectId": "4ySUP36tFp"
},
{
  "Address": "50 E. Washington Street, Petaluma, CA 94952",
  "BrewURL": "http://www.dempseys.com",
  "Logo": {
    "__type": "File",
    "name": "6f8938ce-5bc3-4d81-a19b-d9c5e343f6d1-Devils_Canyon_logo.png",
    "url": "http://files.parse.com/31f19913-ad45-42f2-b1b3-d7e333561938/6f8938ce-5bc3-4d81-a19b-d9c5e343f6d1-Devils_Canyon_logo.png"
  },
  "LogoSm": {
    "__type": "File",
    "name": "b4b603a4-8bb0-46a3-aab2-1e5789d33471-dempseys-logo-sm.png",
    "url": "http://files.parse.com/31f19913-ad45-42f2-b1b3-d7e333561938/b4b603a4-8bb0-46a3-aab2-1e5789d33471-dempseys-logo-sm.png"
  },
  "Name": "Dempsey's Restaurant & Brewery",
  "brewloc": {
    "__type": "GeoPoint",
    "latitude": 38.2363,
    "longitude": -122.639544
  },
  "createdAt": "2013-09-16T21:25:43.654Z",
  "updatedAt": "2013-10-25T17:23:16.805Z",
  "objectId": "RC4tsD37jq"
},
{
  "Address": "345 Healdsburg Ave, Healdsburg, CA 95448",
  "BrewURL": "http://bearrepublic.com",
  "Logo": {
    "__type": "File",
    "name": "be214a89-e9d5-407b-a2ea-e17bf9c4eb5a-dempseys-logo.png",
    "url": "http://files.parse.com/31f19913-ad45-42f2-b1b3-d7e333561938/be214a89-e9d5-407b-a2ea-e17bf9c4eb5a-dempseys-logo.png"
  },
  "LogoSm": {
    "__type": "File",
    "name": "f671e72b-4c06-4adc-9fa0-f92e0943b5d0-bear-republic-logo-sm.png",
    "url": "http://files.parse.com/31f19913-ad45-42f2-b1b3-d7e333561938/f671e72b-4c06-4adc-9fa0-f92e0943b5d0-bear-republic-logo-sm.png"
  },
  "Name": "Bear Republic",
  "brewloc": {
    "__type": "GeoPoint",
    "latitude": 38.61078,
    "longitude": -122.870816
  },
  "createdAt": "2013-09-13T18:53:06.562Z",
  "updatedAt": "2013-10-25T17:23:33.725Z",
  "objectId": "a4YgTSEMPN"
},
{
  "Address": "1280 North McDowell Blvd, Petaluma, CA 94954",
  "BrewURL": "http://lagunitas.com",
  "Logo": {
    "__type": "File",
    "name": "5ea4d585-f77b-4d52-8740-64635c3e3133-lagunitas_brew.png",
    "url": "http://files.parse.com/31f19913-ad45-42f2-b1b3-d7e333561938/5ea4d585-f77b-4d52-8740-64635c3e3133-lagunitas_brew.png"
  },
  "LogoSm": {
    "__type": "File",
    "name": "943ca575-a018-4fa6-b34e-30d6ac98e49e-lagunitas_brew_sm.png",
    "url": "http://files.parse.com/31f19913-ad45-42f2-b1b3-d7e333561938/943ca575-a018-4fa6-b34e-30d6ac98e49e-lagunitas_brew_sm.png"
  },
  "Name": "Lagunitas",
  "brewloc": {
    "__type": "GeoPoint",
    "latitude": 38.2725,
    "longitude": -122.6625
  },
  "createdAt": "2013-09-13T18:31:10.040Z",
  "updatedAt": "2013-10-25T17:24:15.617Z",
  "objectId": "xhmHDdqELg"
}
] }
